-target:library
-out:"Library/Bee/artifacts/2100b0aEDbg.dag/Microsoft.MixedReality.Toolkit.Providers.ObjectMeshObserver.dll"
-refout:"Library/Bee/artifacts/2100b0aEDbg.dag/Microsoft.MixedReality.Toolkit.Providers.ObjectMeshObserver.ref.dll"
-define:UNITY_2022_1_21
-define:UNITY_2022_1
-define:UNITY_2022
-define:UNITY_5_3_OR_NEWER
-define:UNITY_5_4_OR_NEWER
-define:UNITY_5_5_OR_NEWER
-define:UNITY_5_6_OR_NEWER
-define:UNITY_2017_1_OR_NEWER
-define:UNITY_2017_2_OR_NEWER
-define:UNITY_2017_3_OR_NEWER
-define:UNITY_2017_4_OR_NEWER
-define:UNITY_2018_1_OR_NEWER
-define:UNITY_2018_2_OR_NEWER
-define:UNITY_2018_3_OR_NEWER
-define:UNITY_2018_4_OR_NEWER
-define:UNITY_2019_1_OR_NEWER
-define:UNITY_2019_2_OR_NEWER
-define:UNITY_2019_3_OR_NEWER
-define:UNITY_2019_4_OR_NEWER
-define:UNITY_2020_1_OR_NEWER
-define:UNITY_2020_2_OR_NEWER
-define:UNITY_2020_3_OR_NEWER
-define:UNITY_2021_1_OR_NEWER
-define:UNITY_2021_2_OR_NEWER
-define:UNITY_2021_3_OR_NEWER
-define:UNITY_2022_1_OR_NEWER
-define:UNITY_INCLUDE_TESTS
-define:USE_SEARCH_ENGINE_API
-define:USE_SEARCH_TABLE
-define:USE_SEARCH_MODULE
-define:USE_PROPERTY_DATABASE
-define:USE_QUERY_BUILDER
-define:USE_SEARCH_EXTENSION_API
-define:SCENE_TEMPLATE_MODULE
-define:ENABLE_AR
-define:ENABLE_AUDIO
-define:ENABLE_CACHING
-define:ENABLE_CLOTH
-define:ENABLE_EVENT_QUEUE
-define:ENABLE_MICROPHONE
-define:ENABLE_MULTIPLE_DISPLAYS
-define:ENABLE_PHYSICS
-define:ENABLE_TEXTURE_STREAMING
-define:ENABLE_VIRTUALTEXTURING
-define:ENABLE_UNET
-define:ENABLE_LZMA
-define:ENABLE_UNITYEVENTS
-define:ENABLE_VR
-define:ENABLE_WEBCAM
-define:ENABLE_UNITYWEBREQUEST
-define:ENABLE_WWW
-define:ENABLE_CLOUD_SERVICES
-define:ENABLE_CLOUD_SERVICES_COLLAB
-define:ENABLE_CLOUD_SERVICES_COLLAB_SOFTLOCKS
-define:ENABLE_CLOUD_SERVICES_ADS
-define:ENABLE_CLOUD_SERVICES_USE_WEBREQUEST
-define:ENABLE_CLOUD_SERVICES_CRASH_REPORTING
-define:ENABLE_CLOUD_SERVICES_PURCHASING
-define:ENABLE_CLOUD_SERVICES_ANALYTICS
-define:ENABLE_CLOUD_SERVICES_UNET
-define:ENABLE_CLOUD_SERVICES_BUILD
-define:ENABLE_EDITOR_GAME_SERVICES
-define:ENABLE_CLOUD_LICENSE
-define:ENABLE_EDITOR_HUB_LICENSE
-define:ENABLE_WEBSOCKET_CLIENT
-define:ENABLE_DIRECTOR_AUDIO
-define:ENABLE_DIRECTOR_TEXTURE
-define:ENABLE_MANAGED_JOBS
-define:ENABLE_MANAGED_TRANSFORM_JOBS
-define:ENABLE_MANAGED_ANIMATION_JOBS
-define:ENABLE_MANAGED_AUDIO_JOBS
-define:ENABLE_ONSCREEN_KEYBOARD
-define:ENABLE_MANAGED_UNITYTLS
-define:INCLUDE_DYNAMIC_GI
-define:ENABLE_SCRIPTING_GC_WBARRIERS
-define:RENDER_SOFTWARE_CURSOR
-define:ENABLE_VIDEO
-define:ENABLE_ACCELERATOR_CLIENT_DEBUGGING
-define:PLATFORM_WINRT
-define:TEXTCORE_1_0_OR_NEWER
-define:PLATFORM_METRO
-define:UNITY_METRO
-define:UNITY_METRO_API
-define:UNITY_WSA
-define:UNITY_WSA_10_0
-define:UNITY_WINRT_10_0
-define:UNITY_WINRT
-define:ENABLE_MOVIES
-define:ENABLE_CRUNCH_TEXTURE_COMPRESSION
-define:ENABLE_NETWORK
-define:UNITY_PLATFORM_THREAD_TO_CORE_MAPPING
-define:PLATFORM_SUPPORTS_ADS_ID
-define:ENABLE_UNITY_GAME_SERVICES_ANALYTICS_SUPPORT
-define:CURL_STATICLIB
-define:PLATFORM_OVERRIDES_APPLICATION_PACKAGE_NAME
-define:PLATFORM_IMPLEMENTS_ATTACH_DIALOG
-define:DISABLE_PLUGIN_LOAD_WRAPPER
-define:PLATFORM_UPDATES_TIME_OUTSIDE_OF_PLAYER_LOOP
-define:PLATFORM_INITIALIZES_MEMORY_MANAGER_EXPLICITLY
-define:ENABLE_MONO
-define:NET_4_6
-define:NET_UNITY_4_8
-define:ENABLE_PROFILER
-define:DEBUG
-define:TRACE
-define:UNITY_ASSERTIONS
-define:UNITY_EDITOR
-define:UNITY_EDITOR_64
-define:UNITY_EDITOR_WIN
-define:ENABLE_UNITY_COLLECTIONS_CHECKS
-define:ENABLE_BURST_AOT
-define:UNITY_TEAM_LICENSE
-define:ENABLE_CUSTOM_RENDER_TEXTURE
-define:ENABLE_DIRECTOR
-define:ENABLE_LOCALIZATION
-define:ENABLE_SPRITES
-define:ENABLE_TERRAIN
-define:ENABLE_TILEMAP
-define:ENABLE_TIMELINE
-define:ENABLE_INPUT_SYSTEM
-define:ENABLE_LEGACY_INPUT_MANAGER
-define:CSHARP_7_OR_LATER
-define:CSHARP_7_3_OR_NEWER
-r:"E:/unity/Caches/Hub/Editor/2022.1.21f1/Editor/Data/Managed/UnityEditor.Graphs.dll"
-r:"E:/unity/Caches/Hub/Editor/2022.1.21f1/Editor/Data/Managed/UnityEngine/UnityEditor.CoreModule.dll"
-r:"E:/unity/Caches/Hub/Editor/2022.1.21f1/Editor/Data/Managed/UnityEngine/UnityEditor.DeviceSimulatorModule.dll"
-r:"E:/unity/Caches/Hub/Editor/2022.1.21f1/Editor/Data/Managed/UnityEngine/UnityEditor.DiagnosticsModule.dll"
-r:"E:/unity/Caches/Hub/Editor/2022.1.21f1/Editor/Data/Managed/UnityEngine/UnityEditor.dll"
-r:"E:/unity/Caches/Hub/Editor/2022.1.21f1/Editor/Data/Managed/UnityEngine/UnityEditor.GraphViewModule.dll"
-r:"E:/unity/Caches/Hub/Editor/2022.1.21f1/Editor/Data/Managed/UnityEngine/UnityEditor.PackageManagerUIModule.dll"
-r:"E:/unity/Caches/Hub/Editor/2022.1.21f1/Editor/Data/Managed/UnityEngine/UnityEditor.PresetsUIModule.dll"
-r:"E:/unity/Caches/Hub/Editor/2022.1.21f1/Editor/Data/Managed/UnityEngine/UnityEditor.QuickSearchModule.dll"
-r:"E:/unity/Caches/Hub/Editor/2022.1.21f1/Editor/Data/Managed/UnityEngine/UnityEditor.SceneTemplateModule.dll"
-r:"E:/unity/Caches/Hub/Editor/2022.1.21f1/Editor/Data/Managed/UnityEngine/UnityEditor.TextCoreFontEngineModule.dll"
-r:"E:/unity/Caches/Hub/Editor/2022.1.21f1/Editor/Data/Managed/UnityEngine/UnityEditor.TextCoreTextEngineModule.dll"
-r:"E:/unity/Caches/Hub/Editor/2022.1.21f1/Editor/Data/Managed/UnityEngine/UnityEditor.UIBuilderModule.dll"
-r:"E:/unity/Caches/Hub/Editor/2022.1.21f1/Editor/Data/Managed/UnityEngine/UnityEditor.UIElementsModule.dll"
-r:"E:/unity/Caches/Hub/Editor/2022.1.21f1/Editor/Data/Managed/UnityEngine/UnityEditor.UIElementsSamplesModule.dll"
-r:"E:/unity/Caches/Hub/Editor/2022.1.21f1/Editor/Data/Managed/UnityEngine/UnityEditor.UIServiceModule.dll"
-r:"E:/unity/Caches/Hub/Editor/2022.1.21f1/Editor/Data/Managed/UnityEngine/UnityEditor.UnityConnectModule.dll"
-r:"E:/unity/Caches/Hub/Editor/2022.1.21f1/Editor/Data/Managed/UnityEngine/UnityEngine.AccessibilityModule.dll"
-r:"E:/unity/Caches/Hub/Editor/2022.1.21f1/Editor/Data/Managed/UnityEngine/UnityEngine.AIModule.dll"
-r:"E:/unity/Caches/Hub/Editor/2022.1.21f1/Editor/Data/Managed/UnityEngine/UnityEngine.AndroidJNIModule.dll"
-r:"E:/unity/Caches/Hub/Editor/2022.1.21f1/Editor/Data/Managed/UnityEngine/UnityEngine.AnimationModule.dll"
-r:"E:/unity/Caches/Hub/Editor/2022.1.21f1/Editor/Data/Managed/UnityEngine/UnityEngine.ARModule.dll"
-r:"E:/unity/Caches/Hub/Editor/2022.1.21f1/Editor/Data/Managed/UnityEngine/UnityEngine.AssetBundleModule.dll"
-r:"E:/unity/Caches/Hub/Editor/2022.1.21f1/Editor/Data/Managed/UnityEngine/UnityEngine.AudioModule.dll"
-r:"E:/unity/Caches/Hub/Editor/2022.1.21f1/Editor/Data/Managed/UnityEngine/UnityEngine.ClothModule.dll"
-r:"E:/unity/Caches/Hub/Editor/2022.1.21f1/Editor/Data/Managed/UnityEngine/UnityEngine.ClusterInputModule.dll"
-r:"E:/unity/Caches/Hub/Editor/2022.1.21f1/Editor/Data/Managed/UnityEngine/UnityEngine.ClusterRendererModule.dll"
-r:"E:/unity/Caches/Hub/Editor/2022.1.21f1/Editor/Data/Managed/UnityEngine/UnityEngine.CoreModule.dll"
-r:"E:/unity/Caches/Hub/Editor/2022.1.21f1/Editor/Data/Managed/UnityEngine/UnityEngine.CrashReportingModule.dll"
-r:"E:/unity/Caches/Hub/Editor/2022.1.21f1/Editor/Data/Managed/UnityEngine/UnityEngine.DirectorModule.dll"
-r:"E:/unity/Caches/Hub/Editor/2022.1.21f1/Editor/Data/Managed/UnityEngine/UnityEngine.dll"
-r:"E:/unity/Caches/Hub/Editor/2022.1.21f1/Editor/Data/Managed/UnityEngine/UnityEngine.DSPGraphModule.dll"
-r:"E:/unity/Caches/Hub/Editor/2022.1.21f1/Editor/Data/Managed/UnityEngine/UnityEngine.GameCenterModule.dll"
-r:"E:/unity/Caches/Hub/Editor/2022.1.21f1/Editor/Data/Managed/UnityEngine/UnityEngine.GIModule.dll"
-r:"E:/unity/Caches/Hub/Editor/2022.1.21f1/Editor/Data/Managed/UnityEngine/UnityEngine.GridModule.dll"
-r:"E:/unity/Caches/Hub/Editor/2022.1.21f1/Editor/Data/Managed/UnityEngine/UnityEngine.HotReloadModule.dll"
-r:"E:/unity/Caches/Hub/Editor/2022.1.21f1/Editor/Data/Managed/UnityEngine/UnityEngine.ImageConversionModule.dll"
-r:"E:/unity/Caches/Hub/Editor/2022.1.21f1/Editor/Data/Managed/UnityEngine/UnityEngine.IMGUIModule.dll"
-r:"E:/unity/Caches/Hub/Editor/2022.1.21f1/Editor/Data/Managed/UnityEngine/UnityEngine.InputLegacyModule.dll"
-r:"E:/unity/Caches/Hub/Editor/2022.1.21f1/Editor/Data/Managed/UnityEngine/UnityEngine.InputModule.dll"
-r:"E:/unity/Caches/Hub/Editor/2022.1.21f1/Editor/Data/Managed/UnityEngine/UnityEngine.JSONSerializeModule.dll"
-r:"E:/unity/Caches/Hub/Editor/2022.1.21f1/Editor/Data/Managed/UnityEngine/UnityEngine.LocalizationModule.dll"
-r:"E:/unity/Caches/Hub/Editor/2022.1.21f1/Editor/Data/Managed/UnityEngine/UnityEngine.NVIDIAModule.dll"
-r:"E:/unity/Caches/Hub/Editor/2022.1.21f1/Editor/Data/Managed/UnityEngine/UnityEngine.ParticleSystemModule.dll"
-r:"E:/unity/Caches/Hub/Editor/2022.1.21f1/Editor/Data/Managed/UnityEngine/UnityEngine.PerformanceReportingModule.dll"
-r:"E:/unity/Caches/Hub/Editor/2022.1.21f1/Editor/Data/Managed/UnityEngine/UnityEngine.Physics2DModule.dll"
-r:"E:/unity/Caches/Hub/Editor/2022.1.21f1/Editor/Data/Managed/UnityEngine/UnityEngine.PhysicsModule.dll"
-r:"E:/unity/Caches/Hub/Editor/2022.1.21f1/Editor/Data/Managed/UnityEngine/UnityEngine.ProfilerModule.dll"
-r:"E:/unity/Caches/Hub/Editor/2022.1.21f1/Editor/Data/Managed/UnityEngine/UnityEngine.RuntimeInitializeOnLoadManagerInitializerModule.dll"
-r:"E:/unity/Caches/Hub/Editor/2022.1.21f1/Editor/Data/Managed/UnityEngine/UnityEngine.ScreenCaptureModule.dll"
-r:"E:/unity/Caches/Hub/Editor/2022.1.21f1/Editor/Data/Managed/UnityEngine/UnityEngine.SharedInternalsModule.dll"
-r:"E:/unity/Caches/Hub/Editor/2022.1.21f1/Editor/Data/Managed/UnityEngine/UnityEngine.SpriteMaskModule.dll"
-r:"E:/unity/Caches/Hub/Editor/2022.1.21f1/Editor/Data/Managed/UnityEngine/UnityEngine.SpriteShapeModule.dll"
-r:"E:/unity/Caches/Hub/Editor/2022.1.21f1/Editor/Data/Managed/UnityEngine/UnityEngine.StreamingModule.dll"
-r:"E:/unity/Caches/Hub/Editor/2022.1.21f1/Editor/Data/Managed/UnityEngine/UnityEngine.SubstanceModule.dll"
-r:"E:/unity/Caches/Hub/Editor/2022.1.21f1/Editor/Data/Managed/UnityEngine/UnityEngine.SubsystemsModule.dll"
-r:"E:/unity/Caches/Hub/Editor/2022.1.21f1/Editor/Data/Managed/UnityEngine/UnityEngine.TerrainModule.dll"
-r:"E:/unity/Caches/Hub/Editor/2022.1.21f1/Editor/Data/Managed/UnityEngine/UnityEngine.TerrainPhysicsModule.dll"
-r:"E:/unity/Caches/Hub/Editor/2022.1.21f1/Editor/Data/Managed/UnityEngine/UnityEngine.TextCoreFontEngineModule.dll"
-r:"E:/unity/Caches/Hub/Editor/2022.1.21f1/Editor/Data/Managed/UnityEngine/UnityEngine.TextCoreTextEngineModule.dll"
-r:"E:/unity/Caches/Hub/Editor/2022.1.21f1/Editor/Data/Managed/UnityEngine/UnityEngine.TextRenderingModule.dll"
-r:"E:/unity/Caches/Hub/Editor/2022.1.21f1/Editor/Data/Managed/UnityEngine/UnityEngine.TilemapModule.dll"
-r:"E:/unity/Caches/Hub/Editor/2022.1.21f1/Editor/Data/Managed/UnityEngine/UnityEngine.TLSModule.dll"
-r:"E:/unity/Caches/Hub/Editor/2022.1.21f1/Editor/Data/Managed/UnityEngine/UnityEngine.UIElementsModule.dll"
-r:"E:/unity/Caches/Hub/Editor/2022.1.21f1/Editor/Data/Managed/UnityEngine/UnityEngine.UIElementsNativeModule.dll"
-r:"E:/unity/Caches/Hub/Editor/2022.1.21f1/Editor/Data/Managed/UnityEngine/UnityEngine.UIModule.dll"
-r:"E:/unity/Caches/Hub/Editor/2022.1.21f1/Editor/Data/Managed/UnityEngine/UnityEngine.UmbraModule.dll"
-r:"E:/unity/Caches/Hub/Editor/2022.1.21f1/Editor/Data/Managed/UnityEngine/UnityEngine.UNETModule.dll"
-r:"E:/unity/Caches/Hub/Editor/2022.1.21f1/Editor/Data/Managed/UnityEngine/UnityEngine.UnityAnalyticsCommonModule.dll"
-r:"E:/unity/Caches/Hub/Editor/2022.1.21f1/Editor/Data/Managed/UnityEngine/UnityEngine.UnityAnalyticsModule.dll"
-r:"E:/unity/Caches/Hub/Editor/2022.1.21f1/Editor/Data/Managed/UnityEngine/UnityEngine.UnityConnectModule.dll"
-r:"E:/unity/Caches/Hub/Editor/2022.1.21f1/Editor/Data/Managed/UnityEngine/UnityEngine.UnityCurlModule.dll"
-r:"E:/unity/Caches/Hub/Editor/2022.1.21f1/Editor/Data/Managed/UnityEngine/UnityEngine.UnityTestProtocolModule.dll"
-r:"E:/unity/Caches/Hub/Editor/2022.1.21f1/Editor/Data/Managed/UnityEngine/UnityEngine.UnityWebRequestAssetBundleModule.dll"
-r:"E:/unity/Caches/Hub/Editor/2022.1.21f1/Editor/Data/Managed/UnityEngine/UnityEngine.UnityWebRequestAudioModule.dll"
-r:"E:/unity/Caches/Hub/Editor/2022.1.21f1/Editor/Data/Managed/UnityEngine/UnityEngine.UnityWebRequestModule.dll"
-r:"E:/unity/Caches/Hub/Editor/2022.1.21f1/Editor/Data/Managed/UnityEngine/UnityEngine.UnityWebRequestTextureModule.dll"
-r:"E:/unity/Caches/Hub/Editor/2022.1.21f1/Editor/Data/Managed/UnityEngine/UnityEngine.UnityWebRequestWWWModule.dll"
-r:"E:/unity/Caches/Hub/Editor/2022.1.21f1/Editor/Data/Managed/UnityEngine/UnityEngine.VehiclesModule.dll"
-r:"E:/unity/Caches/Hub/Editor/2022.1.21f1/Editor/Data/Managed/UnityEngine/UnityEngine.VFXModule.dll"
-r:"E:/unity/Caches/Hub/Editor/2022.1.21f1/Editor/Data/Managed/UnityEngine/UnityEngine.VideoModule.dll"
-r:"E:/unity/Caches/Hub/Editor/2022.1.21f1/Editor/Data/Managed/UnityEngine/UnityEngine.VirtualTexturingModule.dll"
-r:"E:/unity/Caches/Hub/Editor/2022.1.21f1/Editor/Data/Managed/UnityEngine/UnityEngine.VRModule.dll"
-r:"E:/unity/Caches/Hub/Editor/2022.1.21f1/Editor/Data/Managed/UnityEngine/UnityEngine.WindModule.dll"
-r:"E:/unity/Caches/Hub/Editor/2022.1.21f1/Editor/Data/Managed/UnityEngine/UnityEngine.XRModule.dll"
-r:"E:/unity/Caches/Hub/Editor/2022.1.21f1/Editor/Data/PlaybackEngines/AndroidPlayer/Unity.Android.Gradle.dll"
-r:"E:/unity/Caches/Hub/Editor/2022.1.21f1/Editor/Data/PlaybackEngines/AndroidPlayer/Unity.Android.Types.dll"
-r:"E:/unity/Caches/Hub/Editor/2022.1.21f1/Editor/Data/PlaybackEngines/AndroidPlayer/UnityEditor.Android.Extensions.dll"
-r:"E:/unity/Caches/Hub/Editor/2022.1.21f1/Editor/Data/PlaybackEngines/MetroSupport/UnityEditor.UWP.Extensions.dll"
-r:"E:/unity/Caches/Hub/Editor/2022.1.21f1/Editor/Data/PlaybackEngines/WindowsStandaloneSupport/UnityEditor.WindowsStandalone.Extensions.dll"
-r:"E:/unity/Caches/Hub/Editor/2022.1.21f1/Editor/Data/UnityReferenceAssemblies/unity-4.8-api/Facades/Microsoft.Win32.Primitives.dll"
-r:"E:/unity/Caches/Hub/Editor/2022.1.21f1/Editor/Data/UnityReferenceAssemblies/unity-4.8-api/Facades/netstandard.dll"
-r:"E:/unity/Caches/Hub/Editor/2022.1.21f1/Editor/Data/UnityReferenceAssemblies/unity-4.8-api/Facades/System.AppContext.dll"
-r:"E:/unity/Caches/Hub/Editor/2022.1.21f1/Editor/Data/UnityReferenceAssemblies/unity-4.8-api/Facades/System.Buffers.dll"
-r:"E:/unity/Caches/Hub/Editor/2022.1.21f1/Editor/Data/UnityReferenceAssemblies/unity-4.8-api/Facades/System.Collections.Concurrent.dll"
-r:"E:/unity/Caches/Hub/Editor/2022.1.21f1/Editor/Data/UnityReferenceAssemblies/unity-4.8-api/Facades/System.Collections.dll"
-r:"E:/unity/Caches/Hub/Editor/2022.1.21f1/Editor/Data/UnityReferenceAssemblies/unity-4.8-api/Facades/System.Collections.NonGeneric.dll"
-r:"E:/unity/Caches/Hub/Editor/2022.1.21f1/Editor/Data/UnityReferenceAssemblies/unity-4.8-api/Facades/System.Collections.Specialized.dll"
-r:"E:/unity/Caches/Hub/Editor/2022.1.21f1/Editor/Data/UnityReferenceAssemblies/unity-4.8-api/Facades/System.ComponentModel.Annotations.dll"
-r:"E:/unity/Caches/Hub/Editor/2022.1.21f1/Editor/Data/UnityReferenceAssemblies/unity-4.8-api/Facades/System.ComponentModel.dll"
-r:"E:/unity/Caches/Hub/Editor/2022.1.21f1/Editor/Data/UnityReferenceAssemblies/unity-4.8-api/Facades/System.ComponentModel.EventBasedAsync.dll"
-r:"E:/unity/Caches/Hub/Editor/2022.1.21f1/Editor/Data/UnityReferenceAssemblies/unity-4.8-api/Facades/System.ComponentModel.Primitives.dll"
-r:"E:/unity/Caches/Hub/Editor/2022.1.21f1/Editor/Data/UnityReferenceAssemblies/unity-4.8-api/Facades/System.ComponentModel.TypeConverter.dll"
-r:"E:/unity/Caches/Hub/Editor/2022.1.21f1/Editor/Data/UnityReferenceAssemblies/unity-4.8-api/Facades/System.Console.dll"
-r:"E:/unity/Caches/Hub/Editor/2022.1.21f1/Editor/Data/UnityReferenceAssemblies/unity-4.8-api/Facades/System.Data.Common.dll"
-r:"E:/unity/Caches/Hub/Editor/2022.1.21f1/Editor/Data/UnityReferenceAssemblies/unity-4.8-api/Facades/System.Diagnostics.Contracts.dll"
-r:"E:/unity/Caches/Hub/Editor/2022.1.21f1/Editor/Data/UnityReferenceAssemblies/unity-4.8-api/Facades/System.Diagnostics.Debug.dll"
-r:"E:/unity/Caches/Hub/Editor/2022.1.21f1/Editor/Data/UnityReferenceAssemblies/unity-4.8-api/Facades/System.Diagnostics.FileVersionInfo.dll"
-r:"E:/unity/Caches/Hub/Editor/2022.1.21f1/Editor/Data/UnityReferenceAssemblies/unity-4.8-api/Facades/System.Diagnostics.Process.dll"
-r:"E:/unity/Caches/Hub/Editor/2022.1.21f1/Editor/Data/UnityReferenceAssemblies/unity-4.8-api/Facades/System.Diagnostics.StackTrace.dll"
-r:"E:/unity/Caches/Hub/Editor/2022.1.21f1/Editor/Data/UnityReferenceAssemblies/unity-4.8-api/Facades/System.Diagnostics.TextWriterTraceListener.dll"
-r:"E:/unity/Caches/Hub/Editor/2022.1.21f1/Editor/Data/UnityReferenceAssemblies/unity-4.8-api/Facades/System.Diagnostics.Tools.dll"
-r:"E:/unity/Caches/Hub/Editor/2022.1.21f1/Editor/Data/UnityReferenceAssemblies/unity-4.8-api/Facades/System.Diagnostics.TraceSource.dll"
-r:"E:/unity/Caches/Hub/Editor/2022.1.21f1/Editor/Data/UnityReferenceAssemblies/unity-4.8-api/Facades/System.Drawing.Primitives.dll"
-r:"E:/unity/Caches/Hub/Editor/2022.1.21f1/Editor/Data/UnityReferenceAssemblies/unity-4.8-api/Facades/System.Dynamic.Runtime.dll"
-r:"E:/unity/Caches/Hub/Editor/2022.1.21f1/Editor/Data/UnityReferenceAssemblies/unity-4.8-api/Facades/System.Globalization.Calendars.dll"
-r:"E:/unity/Caches/Hub/Editor/2022.1.21f1/Editor/Data/UnityReferenceAssemblies/unity-4.8-api/Facades/System.Globalization.dll"
-r:"E:/unity/Caches/Hub/Editor/2022.1.21f1/Editor/Data/UnityReferenceAssemblies/unity-4.8-api/Facades/System.Globalization.Extensions.dll"
-r:"E:/unity/Caches/Hub/Editor/2022.1.21f1/Editor/Data/UnityReferenceAssemblies/unity-4.8-api/Facades/System.IO.Compression.ZipFile.dll"
-r:"E:/unity/Caches/Hub/Editor/2022.1.21f1/Editor/Data/UnityReferenceAssemblies/unity-4.8-api/Facades/System.IO.dll"
-r:"E:/unity/Caches/Hub/Editor/2022.1.21f1/Editor/Data/UnityReferenceAssemblies/unity-4.8-api/Facades/System.IO.FileSystem.dll"
-r:"E:/unity/Caches/Hub/Editor/2022.1.21f1/Editor/Data/UnityReferenceAssemblies/unity-4.8-api/Facades/System.IO.FileSystem.DriveInfo.dll"
-r:"E:/unity/Caches/Hub/Editor/2022.1.21f1/Editor/Data/UnityReferenceAssemblies/unity-4.8-api/Facades/System.IO.FileSystem.Primitives.dll"
-r:"E:/unity/Caches/Hub/Editor/2022.1.21f1/Editor/Data/UnityReferenceAssemblies/unity-4.8-api/Facades/System.IO.FileSystem.Watcher.dll"
-r:"E:/unity/Caches/Hub/Editor/2022.1.21f1/Editor/Data/UnityReferenceAssemblies/unity-4.8-api/Facades/System.IO.IsolatedStorage.dll"
-r:"E:/unity/Caches/Hub/Editor/2022.1.21f1/Editor/Data/UnityReferenceAssemblies/unity-4.8-api/Facades/System.IO.MemoryMappedFiles.dll"
-r:"E:/unity/Caches/Hub/Editor/2022.1.21f1/Editor/Data/UnityReferenceAssemblies/unity-4.8-api/Facades/System.IO.Pipes.dll"
-r:"E:/unity/Caches/Hub/Editor/2022.1.21f1/Editor/Data/UnityReferenceAssemblies/unity-4.8-api/Facades/System.IO.UnmanagedMemoryStream.dll"
-r:"E:/unity/Caches/Hub/Editor/2022.1.21f1/Editor/Data/UnityReferenceAssemblies/unity-4.8-api/Facades/System.Linq.dll"
-r:"E:/unity/Caches/Hub/Editor/2022.1.21f1/Editor/Data/UnityReferenceAssemblies/unity-4.8-api/Facades/System.Linq.Expressions.dll"
-r:"E:/unity/Caches/Hub/Editor/2022.1.21f1/Editor/Data/UnityReferenceAssemblies/unity-4.8-api/Facades/System.Linq.Parallel.dll"
-r:"E:/unity/Caches/Hub/Editor/2022.1.21f1/Editor/Data/UnityReferenceAssemblies/unity-4.8-api/Facades/System.Linq.Queryable.dll"
-r:"E:/unity/Caches/Hub/Editor/2022.1.21f1/Editor/Data/UnityReferenceAssemblies/unity-4.8-api/Facades/System.Memory.dll"
-r:"E:/unity/Caches/Hub/Editor/2022.1.21f1/Editor/Data/UnityReferenceAssemblies/unity-4.8-api/Facades/System.Net.Http.Rtc.dll"
-r:"E:/unity/Caches/Hub/Editor/2022.1.21f1/Editor/Data/UnityReferenceAssemblies/unity-4.8-api/Facades/System.Net.NameResolution.dll"
-r:"E:/unity/Caches/Hub/Editor/2022.1.21f1/Editor/Data/UnityReferenceAssemblies/unity-4.8-api/Facades/System.Net.NetworkInformation.dll"
-r:"E:/unity/Caches/Hub/Editor/2022.1.21f1/Editor/Data/UnityReferenceAssemblies/unity-4.8-api/Facades/System.Net.Ping.dll"
-r:"E:/unity/Caches/Hub/Editor/2022.1.21f1/Editor/Data/UnityReferenceAssemblies/unity-4.8-api/Facades/System.Net.Primitives.dll"
-r:"E:/unity/Caches/Hub/Editor/2022.1.21f1/Editor/Data/UnityReferenceAssemblies/unity-4.8-api/Facades/System.Net.Requests.dll"
-r:"E:/unity/Caches/Hub/Editor/2022.1.21f1/Editor/Data/UnityReferenceAssemblies/unity-4.8-api/Facades/System.Net.Security.dll"
-r:"E:/unity/Caches/Hub/Editor/2022.1.21f1/Editor/Data/UnityReferenceAssemblies/unity-4.8-api/Facades/System.Net.Sockets.dll"
-r:"E:/unity/Caches/Hub/Editor/2022.1.21f1/Editor/Data/UnityReferenceAssemblies/unity-4.8-api/Facades/System.Net.WebHeaderCollection.dll"
-r:"E:/unity/Caches/Hub/Editor/2022.1.21f1/Editor/Data/UnityReferenceAssemblies/unity-4.8-api/Facades/System.Net.WebSockets.Client.dll"
-r:"E:/unity/Caches/Hub/Editor/2022.1.21f1/Editor/Data/UnityReferenceAssemblies/unity-4.8-api/Facades/System.Net.WebSockets.dll"
-r:"E:/unity/Caches/Hub/Editor/2022.1.21f1/Editor/Data/UnityReferenceAssemblies/unity-4.8-api/Facades/System.ObjectModel.dll"
-r:"E:/unity/Caches/Hub/Editor/2022.1.21f1/Editor/Data/UnityReferenceAssemblies/unity-4.8-api/Facades/System.Reflection.DispatchProxy.dll"
-r:"E:/unity/Caches/Hub/Editor/2022.1.21f1/Editor/Data/UnityReferenceAssemblies/unity-4.8-api/Facades/System.Reflection.dll"
-r:"E:/unity/Caches/Hub/Editor/2022.1.21f1/Editor/Data/UnityReferenceAssemblies/unity-4.8-api/Facades/System.Reflection.Emit.dll"
-r:"E:/unity/Caches/Hub/Editor/2022.1.21f1/Editor/Data/UnityReferenceAssemblies/unity-4.8-api/Facades/System.Reflection.Emit.ILGeneration.dll"
-r:"E:/unity/Caches/Hub/Editor/2022.1.21f1/Editor/Data/UnityReferenceAssemblies/unity-4.8-api/Facades/System.Reflection.Emit.Lightweight.dll"
-r:"E:/unity/Caches/Hub/Editor/2022.1.21f1/Editor/Data/UnityReferenceAssemblies/unity-4.8-api/Facades/System.Reflection.Extensions.dll"
-r:"E:/unity/Caches/Hub/Editor/2022.1.21f1/Editor/Data/UnityReferenceAssemblies/unity-4.8-api/Facades/System.Reflection.Primitives.dll"
-r:"E:/unity/Caches/Hub/Editor/2022.1.21f1/Editor/Data/UnityReferenceAssemblies/unity-4.8-api/Facades/System.Resources.Reader.dll"
-r:"E:/unity/Caches/Hub/Editor/2022.1.21f1/Editor/Data/UnityReferenceAssemblies/unity-4.8-api/Facades/System.Resources.ResourceManager.dll"
-r:"E:/unity/Caches/Hub/Editor/2022.1.21f1/Editor/Data/UnityReferenceAssemblies/unity-4.8-api/Facades/System.Resources.Writer.dll"
-r:"E:/unity/Caches/Hub/Editor/2022.1.21f1/Editor/Data/UnityReferenceAssemblies/unity-4.8-api/Facades/System.Runtime.CompilerServices.VisualC.dll"
-r:"E:/unity/Caches/Hub/Editor/2022.1.21f1/Editor/Data/UnityReferenceAssemblies/unity-4.8-api/Facades/System.Runtime.dll"
-r:"E:/unity/Caches/Hub/Editor/2022.1.21f1/Editor/Data/UnityReferenceAssemblies/unity-4.8-api/Facades/System.Runtime.Extensions.dll"
-r:"E:/unity/Caches/Hub/Editor/2022.1.21f1/Editor/Data/UnityReferenceAssemblies/unity-4.8-api/Facades/System.Runtime.Handles.dll"
-r:"E:/unity/Caches/Hub/Editor/2022.1.21f1/Editor/Data/UnityReferenceAssemblies/unity-4.8-api/Facades/System.Runtime.InteropServices.dll"
-r:"E:/unity/Caches/Hub/Editor/2022.1.21f1/Editor/Data/UnityReferenceAssemblies/unity-4.8-api/Facades/System.Runtime.InteropServices.RuntimeInformation.dll"
-r:"E:/unity/Caches/Hub/Editor/2022.1.21f1/Editor/Data/UnityReferenceAssemblies/unity-4.8-api/Facades/System.Runtime.InteropServices.WindowsRuntime.dll"
-r:"E:/unity/Caches/Hub/Editor/2022.1.21f1/Editor/Data/UnityReferenceAssemblies/unity-4.8-api/Facades/System.Runtime.Numerics.dll"
-r:"E:/unity/Caches/Hub/Editor/2022.1.21f1/Editor/Data/UnityReferenceAssemblies/unity-4.8-api/Facades/System.Runtime.Serialization.Formatters.dll"
-r:"E:/unity/Caches/Hub/Editor/2022.1.21f1/Editor/Data/UnityReferenceAssemblies/unity-4.8-api/Facades/System.Runtime.Serialization.Json.dll"
-r:"E:/unity/Caches/Hub/Editor/2022.1.21f1/Editor/Data/UnityReferenceAssemblies/unity-4.8-api/Facades/System.Runtime.Serialization.Primitives.dll"
-r:"E:/unity/Caches/Hub/Editor/2022.1.21f1/Editor/Data/UnityReferenceAssemblies/unity-4.8-api/Facades/System.Runtime.Serialization.Xml.dll"
-r:"E:/unity/Caches/Hub/Editor/2022.1.21f1/Editor/Data/UnityReferenceAssemblies/unity-4.8-api/Facades/System.Security.Claims.dll"
-r:"E:/unity/Caches/Hub/Editor/2022.1.21f1/Editor/Data/UnityReferenceAssemblies/unity-4.8-api/Facades/System.Security.Cryptography.Algorithms.dll"
-r:"E:/unity/Caches/Hub/Editor/2022.1.21f1/Editor/Data/UnityReferenceAssemblies/unity-4.8-api/Facades/System.Security.Cryptography.Csp.dll"
-r:"E:/unity/Caches/Hub/Editor/2022.1.21f1/Editor/Data/UnityReferenceAssemblies/unity-4.8-api/Facades/System.Security.Cryptography.Encoding.dll"
-r:"E:/unity/Caches/Hub/Editor/2022.1.21f1/Editor/Data/UnityReferenceAssemblies/unity-4.8-api/Facades/System.Security.Cryptography.Primitives.dll"
-r:"E:/unity/Caches/Hub/Editor/2022.1.21f1/Editor/Data/UnityReferenceAssemblies/unity-4.8-api/Facades/System.Security.Cryptography.X509Certificates.dll"
-r:"E:/unity/Caches/Hub/Editor/2022.1.21f1/Editor/Data/UnityReferenceAssemblies/unity-4.8-api/Facades/System.Security.Principal.dll"
-r:"E:/unity/Caches/Hub/Editor/2022.1.21f1/Editor/Data/UnityReferenceAssemblies/unity-4.8-api/Facades/System.Security.SecureString.dll"
-r:"E:/unity/Caches/Hub/Editor/2022.1.21f1/Editor/Data/UnityReferenceAssemblies/unity-4.8-api/Facades/System.ServiceModel.Duplex.dll"
-r:"E:/unity/Caches/Hub/Editor/2022.1.21f1/Editor/Data/UnityReferenceAssemblies/unity-4.8-api/Facades/System.ServiceModel.Http.dll"
-r:"E:/unity/Caches/Hub/Editor/2022.1.21f1/Editor/Data/UnityReferenceAssemblies/unity-4.8-api/Facades/System.ServiceModel.NetTcp.dll"
-r:"E:/unity/Caches/Hub/Editor/2022.1.21f1/Editor/Data/UnityReferenceAssemblies/unity-4.8-api/Facades/System.ServiceModel.Primitives.dll"
-r:"E:/unity/Caches/Hub/Editor/2022.1.21f1/Editor/Data/UnityReferenceAssemblies/unity-4.8-api/Facades/System.ServiceModel.Security.dll"
-r:"E:/unity/Caches/Hub/Editor/2022.1.21f1/Editor/Data/UnityReferenceAssemblies/unity-4.8-api/Facades/System.Text.Encoding.dll"
-r:"E:/unity/Caches/Hub/Editor/2022.1.21f1/Editor/Data/UnityReferenceAssemblies/unity-4.8-api/Facades/System.Text.Encoding.Extensions.dll"
-r:"E:/unity/Caches/Hub/Editor/2022.1.21f1/Editor/Data/UnityReferenceAssemblies/unity-4.8-api/Facades/System.Text.RegularExpressions.dll"
-r:"E:/unity/Caches/Hub/Editor/2022.1.21f1/Editor/Data/UnityReferenceAssemblies/unity-4.8-api/Facades/System.Threading.dll"
-r:"E:/unity/Caches/Hub/Editor/2022.1.21f1/Editor/Data/UnityReferenceAssemblies/unity-4.8-api/Facades/System.Threading.Overlapped.dll"
-r:"E:/unity/Caches/Hub/Editor/2022.1.21f1/Editor/Data/UnityReferenceAssemblies/unity-4.8-api/Facades/System.Threading.Tasks.dll"
-r:"E:/unity/Caches/Hub/Editor/2022.1.21f1/Editor/Data/UnityReferenceAssemblies/unity-4.8-api/Facades/System.Threading.Tasks.Extensions.dll"
-r:"E:/unity/Caches/Hub/Editor/2022.1.21f1/Editor/Data/UnityReferenceAssemblies/unity-4.8-api/Facades/System.Threading.Tasks.Parallel.dll"
-r:"E:/unity/Caches/Hub/Editor/2022.1.21f1/Editor/Data/UnityReferenceAssemblies/unity-4.8-api/Facades/System.Threading.Thread.dll"
-r:"E:/unity/Caches/Hub/Editor/2022.1.21f1/Editor/Data/UnityReferenceAssemblies/unity-4.8-api/Facades/System.Threading.ThreadPool.dll"
-r:"E:/unity/Caches/Hub/Editor/2022.1.21f1/Editor/Data/UnityReferenceAssemblies/unity-4.8-api/Facades/System.Threading.Timer.dll"
-r:"E:/unity/Caches/Hub/Editor/2022.1.21f1/Editor/Data/UnityReferenceAssemblies/unity-4.8-api/Facades/System.ValueTuple.dll"
-r:"E:/unity/Caches/Hub/Editor/2022.1.21f1/Editor/Data/UnityReferenceAssemblies/unity-4.8-api/Facades/System.Xml.ReaderWriter.dll"
-r:"E:/unity/Caches/Hub/Editor/2022.1.21f1/Editor/Data/UnityReferenceAssemblies/unity-4.8-api/Facades/System.Xml.XDocument.dll"
-r:"E:/unity/Caches/Hub/Editor/2022.1.21f1/Editor/Data/UnityReferenceAssemblies/unity-4.8-api/Facades/System.Xml.XmlDocument.dll"
-r:"E:/unity/Caches/Hub/Editor/2022.1.21f1/Editor/Data/UnityReferenceAssemblies/unity-4.8-api/Facades/System.Xml.XmlSerializer.dll"
-r:"E:/unity/Caches/Hub/Editor/2022.1.21f1/Editor/Data/UnityReferenceAssemblies/unity-4.8-api/Facades/System.Xml.XPath.dll"
-r:"E:/unity/Caches/Hub/Editor/2022.1.21f1/Editor/Data/UnityReferenceAssemblies/unity-4.8-api/Facades/System.Xml.XPath.XDocument.dll"
-r:"E:/unity/Caches/Hub/Editor/2022.1.21f1/Editor/Data/UnityReferenceAssemblies/unity-4.8-api/Microsoft.CSharp.dll"
-r:"E:/unity/Caches/Hub/Editor/2022.1.21f1/Editor/Data/UnityReferenceAssemblies/unity-4.8-api/mscorlib.dll"
-r:"E:/unity/Caches/Hub/Editor/2022.1.21f1/Editor/Data/UnityReferenceAssemblies/unity-4.8-api/System.ComponentModel.Composition.dll"
-r:"E:/unity/Caches/Hub/Editor/2022.1.21f1/Editor/Data/UnityReferenceAssemblies/unity-4.8-api/System.Core.dll"
-r:"E:/unity/Caches/Hub/Editor/2022.1.21f1/Editor/Data/UnityReferenceAssemblies/unity-4.8-api/System.Data.DataSetExtensions.dll"
-r:"E:/unity/Caches/Hub/Editor/2022.1.21f1/Editor/Data/UnityReferenceAssemblies/unity-4.8-api/System.Data.dll"
-r:"E:/unity/Caches/Hub/Editor/2022.1.21f1/Editor/Data/UnityReferenceAssemblies/unity-4.8-api/System.dll"
-r:"E:/unity/Caches/Hub/Editor/2022.1.21f1/Editor/Data/UnityReferenceAssemblies/unity-4.8-api/System.Drawing.dll"
-r:"E:/unity/Caches/Hub/Editor/2022.1.21f1/Editor/Data/UnityReferenceAssemblies/unity-4.8-api/System.IO.Compression.dll"
-r:"E:/unity/Caches/Hub/Editor/2022.1.21f1/Editor/Data/UnityReferenceAssemblies/unity-4.8-api/System.IO.Compression.FileSystem.dll"
-r:"E:/unity/Caches/Hub/Editor/2022.1.21f1/Editor/Data/UnityReferenceAssemblies/unity-4.8-api/System.Net.Http.dll"
-r:"E:/unity/Caches/Hub/Editor/2022.1.21f1/Editor/Data/UnityReferenceAssemblies/unity-4.8-api/System.Numerics.dll"
-r:"E:/unity/Caches/Hub/Editor/2022.1.21f1/Editor/Data/UnityReferenceAssemblies/unity-4.8-api/System.Numerics.Vectors.dll"
-r:"E:/unity/Caches/Hub/Editor/2022.1.21f1/Editor/Data/UnityReferenceAssemblies/unity-4.8-api/System.Runtime.Serialization.dll"
-r:"E:/unity/Caches/Hub/Editor/2022.1.21f1/Editor/Data/UnityReferenceAssemblies/unity-4.8-api/System.Transactions.dll"
-r:"E:/unity/Caches/Hub/Editor/2022.1.21f1/Editor/Data/UnityReferenceAssemblies/unity-4.8-api/System.Xml.dll"
-r:"E:/unity/Caches/Hub/Editor/2022.1.21f1/Editor/Data/UnityReferenceAssemblies/unity-4.8-api/System.Xml.Linq.dll"
-r:"E:/unity/Project/App-MRTK-Demo01/Library/PackageCache/com.unity.collab-proxy@1.17.2/Lib/Editor/PlasticSCM/log4netPlastic.dll"
-r:"E:/unity/Project/App-MRTK-Demo01/Library/PackageCache/com.unity.collab-proxy@1.17.2/Lib/Editor/PlasticSCM/Unity.Plastic.Antlr3.Runtime.dll"
-r:"E:/unity/Project/App-MRTK-Demo01/Library/PackageCache/com.unity.collab-proxy@1.17.2/Lib/Editor/PlasticSCM/Unity.Plastic.Newtonsoft.Json.dll"
-r:"E:/unity/Project/App-MRTK-Demo01/Library/PackageCache/com.unity.collab-proxy@1.17.2/Lib/Editor/PlasticSCM/unityplastic.dll"
-r:"E:/unity/Project/App-MRTK-Demo01/Library/PackageCache/com.unity.ext.nunit@1.0.6/net35/unity-custom/nunit.framework.dll"
-r:"E:/unity/Project/App-MRTK-Demo01/Library/PackageCache/com.unity.nuget.newtonsoft-json@3.0.2/Runtime/Newtonsoft.Json.dll"
-r:"E:/unity/Project/App-MRTK-Demo01/Library/PackageCache/com.unity.testtools.codecoverage@1.1.1/lib/ReportGenerator/ReportGeneratorMerged.dll"
-r:"E:/unity/Project/App-MRTK-Demo01/Library/PackageCache/com.unity.visualscripting@1.7.8/Editor/VisualScripting.Core/Dependencies/DotNetZip/Unity.VisualScripting.IonicZip.dll"
-r:"E:/unity/Project/App-MRTK-Demo01/Library/PackageCache/com.unity.visualscripting@1.7.8/Editor/VisualScripting.Core/Dependencies/YamlDotNet/Unity.VisualScripting.YamlDotNet.dll"
-r:"E:/unity/Project/App-MRTK-Demo01/Library/PackageCache/com.unity.visualscripting@1.7.8/Editor/VisualScripting.Core/EditorAssetResources/Unity.VisualScripting.TextureAssets.dll"
-r:"E:/unity/Project/App-MRTK-Demo01/Library/PackageCache/com.unity.visualscripting@1.7.8/Runtime/VisualScripting.Flow/Dependencies/NCalc/Unity.VisualScripting.Antlr3.Runtime.dll"
-r:"Library/Bee/artifacts/2100b0aEDbg.dag/Microsoft.MixedReality.Toolkit.Editor.Inspectors.ref.dll"
-r:"Library/Bee/artifacts/2100b0aEDbg.dag/Microsoft.MixedReality.Toolkit.Editor.Utilities.ref.dll"
-r:"Library/Bee/artifacts/2100b0aEDbg.dag/Microsoft.MixedReality.Toolkit.ref.dll"
-r:"Library/Bee/artifacts/2100b0aEDbg.dag/UnityEditor.TestRunner.ref.dll"
-r:"Library/Bee/artifacts/2100b0aEDbg.dag/UnityEditor.UI.ref.dll"
-r:"Library/Bee/artifacts/2100b0aEDbg.dag/UnityEngine.TestRunner.ref.dll"
-r:"Library/Bee/artifacts/2100b0aEDbg.dag/UnityEngine.UI.ref.dll"
"Library/PackageCache/com.microsoft.mixedreality.toolkit.foundation@321dd3d08b64/Core/Providers/ObjectMeshObserver/AssemblyInfo.cs"
"Library/PackageCache/com.microsoft.mixedreality.toolkit.foundation@321dd3d08b64/Core/Providers/ObjectMeshObserver/RoomFileFormat/RoomFileImporter.cs"
"Library/PackageCache/com.microsoft.mixedreality.toolkit.foundation@321dd3d08b64/Core/Providers/ObjectMeshObserver/RoomFileFormat/RoomFileSerializer.cs"
"Library/PackageCache/com.microsoft.mixedreality.toolkit.foundation@321dd3d08b64/Core/Providers/ObjectMeshObserver/SpatialObjectMeshObserver.cs"
"Library/PackageCache/com.microsoft.mixedreality.toolkit.foundation@321dd3d08b64/Core/Providers/ObjectMeshObserver/SpatialObjectMeshObserverProfile.cs"
"Library/PackageCache/com.microsoft.mixedreality.toolkit.foundation@321dd3d08b64/Core/Providers/ObjectMeshObserver/SpatialObjectMeshObserverProfileInspector.cs"
-langversion:9.0

/deterministic
/optimize-
/debug:portable
/nologo
/RuntimeMetadataVersion:v4.0.30319

/nowarn:0169
/nowarn:0649
/nowarn:1701
/nowarn:1702
/utf8output
/preferreduilang:en-US

-warn:0