{
	"process_id" : 8172,
	"version" : "2022.1.21f1",
	"app_path" : "E:/unity/Caches/Hub/Editor/2022.1.21f1/Editor/Unity.exe",
	"app_contents_path" : "E:/unity/Caches/Hub/Editor/2022.1.21f1/Editor/Data"
}